<?xml version="1.0" encoding="utf-8"?>
<!-- Generator: Adobe Illustrator 15.0.0, SVG Export Plug-In . SVG Version: 6.00 Build 0)  -->
<!DOCTYPE svg PUBLIC "-//W3C//DTD SVG 1.1//EN" "http://www.w3.org/Graphics/SVG/1.1/DTD/svg11.dtd">
<svg version="1.1"  xmlns="http://www.w3.org/2000/svg" xmlns:xlink="http://www.w3.org/1999/xlink" x="0px" y="0px"
	 width="48px" height="48px" viewBox="0 0 48 48" enable-background="new 0 0 48 48" xml:space="preserve">
<g>
	<path fill="#995F1A" d="M14,17l5.5,3.5l10-2c0,0,1.5-2.135,1.5-2.5v-2c0-0.553-4.447-3-5-3H14c-0.553,0-1,0.447-1,1v4
		C13,16.553,13.447,17,14,17z"/>
	<path fill="#995F1A" d="M35,18c2,0,5,7,5,7H4v-3c0,0,0-1.997,2-1.997S33,18,35,18z"/>
	<path fill="#995F1A" d="M35,39H13c-2.723,0-10-4.376-10-8.999c0-2.663,2.336-5,5-5h32c2.663,0,5,2.337,5,5
		C45,34.624,37.725,39,35,39z"/>
	<rect x="31" y="14" fill="#995F1A" width="11" height="2"/>
	<rect x="11" y="13" fill="#995F1A" width="2" height="2"/>
	<path fill="#995F1A" d="M42,13l-2,1v2.002L42,17h3v-4H42z M44,16h-2v-2h2V16z"/>
	<path fill="#995F1A" d="M24,11v-1c0-0.553-0.447-1-1-1h-7c-0.553,0-1,0.447-1,1v1H24z"/>
</g>
<path fill="#56300D" d="M40,27.001H8c-1.689,0-3,1.612-3,3C5,33.355,11.355,37,13,37h22c1.645,0,8-3.645,8-6.999
	C43,28.613,41.689,27.001,40,27.001z"/>
<g>
	<circle fill="#C68632" cx="38.5" cy="30.5" r="2.5"/>
	<circle fill="#C68632" cx="9.5" cy="30.501" r="2.5"/>
	<circle fill="#C68632" cx="15" cy="34" r="2"/>
	<circle fill="#C68632" cx="21" cy="34" r="2"/>
	<circle fill="#C68632" cx="33" cy="34" r="2"/>
	<circle fill="#C68632" cx="27" cy="34" r="2"/>
	<path fill="#C68632" d="M35,18c-0.576,0-31,5-31,5v2h36C40,25,37,18,35,18z"/>
	<path fill="#C68632" d="M26,11H14c-0.553,0-1,0.447-1,1v4c0,0.553,0.447,1,1,1l1.139,0.683l-1.137-0.682H19l1.967,1.966
		c3.166-0.234,6.301-0.467,8.814-0.645C30.368,17.555,31,16.365,31,16v-2C31,13.447,26.553,11,26,11z"/>
</g>
<polygon fill="#FFF3E0" points="32.617,21.253 34,21.454 32.999,22.43 33.234,23.806 31.999,23.156 30.764,23.805 30.999,22.429 
	30,21.453 31.382,21.253 32,20 "/>
</svg>
